<svg width="130" height="81" viewBox="0 0 130 81" fill="none" xmlns="http://www.w3.org/2000/svg">
<path d="M0 35.7584C0 24.6765 2.12617 15.9463 6.37852 9.56779C10.6953 3.18926 17.6215 0 27.157 0C36.6926 0 43.5866 3.18926 47.8389 9.56779C52.1557 15.9463 54.3141 24.6765 54.3141 35.7584C54.3141 46.9691 52.1557 55.7638 47.8389 62.1423C43.5866 68.5208 36.6926 71.7101 27.157 71.7101C17.6215 71.7101 10.6953 68.5208 6.37852 62.1423C2.12617 55.7638 0 46.9691 0 35.7584ZM38.0779 35.7584C38.0779 29.251 37.3691 24.2577 35.9517 20.7785C34.5342 17.2349 31.6027 15.4631 27.157 15.4631C22.7114 15.4631 19.7799 17.2349 18.3624 20.7785C16.945 24.2577 16.2362 29.251 16.2362 35.7584C16.2362 40.1396 16.494 43.7799 17.0094 46.6792C17.5248 49.5141 18.5557 51.8336 20.102 53.6376C21.7128 55.3772 24.0644 56.247 27.157 56.247C30.2497 56.247 32.5691 55.3772 34.1154 53.6376C35.7262 51.8336 36.7893 49.5141 37.3047 46.6792C37.8201 43.7799 38.0779 40.1396 38.0779 35.7584Z" fill="#FFF3D4"/>
<path d="M63.4319 59.4362V46.0993L93.9715 2.41611H112.431V45.1329H120.355V59.4362H112.431V72H95.9044V59.4362H63.4319ZM97.0641 20.5852L80.8279 45.1329H97.0641V20.5852Z" fill="#FFF3D4"/>
<path d="M13.9644 17.2875L13.9644 17.2875L13.9625 17.2904C9.63605 23.7801 7.5 32.6197 7.5 43.7584C7.5 55.0246 9.63552 63.9292 13.9625 70.4196L13.9644 70.4225C18.3968 76.9718 25.5003 80.2101 35.157 80.2101C44.8129 80.2101 51.8859 76.9722 56.2541 70.4209C60.6463 63.93 62.8141 55.0248 62.8141 43.7584C62.8141 32.6193 60.6457 23.7791 56.254 17.2891C51.8858 10.7378 44.8128 7.5 35.157 7.5C25.5003 7.5 18.3968 10.7382 13.9644 17.2875ZM43.4874 28.9642L43.4886 28.9672C44.87 32.3579 45.5779 37.2753 45.5779 43.7584C45.5779 48.1226 45.3209 51.7309 44.8126 54.5909C44.3103 57.3522 43.2808 59.5816 41.7425 61.3046L41.7417 61.3054C40.3189 62.9061 38.1563 63.747 35.157 63.747C32.1634 63.747 29.9648 62.909 28.4754 61.3049C27.0015 59.5823 26.0037 57.3524 25.5015 54.5904C24.9931 51.7305 24.7362 48.1223 24.7362 43.7584C24.7362 37.2753 25.4441 32.3579 26.8255 28.9672L26.8267 28.9642C27.4999 27.2812 28.5207 26.0431 29.8828 25.2199C31.2505 24.3932 32.9988 23.9631 35.157 23.9631C37.3153 23.9631 39.0636 24.3932 40.4313 25.2199C41.7934 26.0431 42.8142 27.2812 43.4874 28.9642ZM70.9319 67.4362V67.9362H71.4319H103.404V80V80.5H103.904H120.431H120.931V80V67.9362H128.355H128.855V67.4362V53.1329V52.6329H128.355H120.931V10.4161V9.91611H120.431H101.971H101.711L101.562 10.1296L71.0221 53.8128L70.9319 53.9419V54.0993V67.4362ZM104.564 52.6329H89.758L104.564 30.2475V52.6329Z" stroke="#FFB61D"/>
</svg>