<svg width="348" height="484" viewBox="0 0 348 484" fill="none" xmlns="http://www.w3.org/2000/svg">
<path fill-rule="evenodd" clip-rule="evenodd" d="M175.248 0.338582C174.572 -0.13275 173.668 -0.110051 173.017 0.394579C140.753 25.3999 101.147 25.0461 62.3715 13.7352C61.6672 13.5297 60.9074 13.7519 60.4254 14.3041C54.3964 21.2126 48.3659 28.122 42.3349 35.032C28.3771 51.0243 14.4163 67.0199 0.462494 83.0144C-0.0902405 83.648 -0.154083 84.5709 0.306213 85.2743C21.4426 117.572 34.2021 149.847 36.4905 182.729C34.174 149.443 25.1499 116.687 4.23184 84.412C17.8925 68.7538 31.5594 53.0949 45.2239 37.4388C50.9745 30.85 56.7247 24.2616 62.4739 17.6741C101.024 28.6996 141.141 29.1557 174.226 4.19996C192.183 16.4908 209.679 22.8794 227.893 24.6703C246.12 26.4625 264.952 23.6386 285.535 17.677C287.985 20.4844 290.435 23.2917 292.885 26.0989C309.852 45.5386 326.814 64.9726 343.768 84.4121C323.763 115.296 311.205 146.383 308.131 178.171C305.015 210.39 311.655 243.201 329.957 277.098C344.747 304.485 346.984 335.191 334.506 363.722C323.511 388.853 302.047 409.714 275.945 419.864C249.38 430.177 221.079 441.476 197.935 458.665L197.933 458.667C182.935 470.344 178.703 478.793 175.356 483.85C182.935 475.507 191.21 468.357 200.182 461.677C222.857 444.837 250.684 433.7 277.309 423.364L277.31 423.363C304.354 412.848 326.563 391.262 337.953 365.225C350.931 335.554 348.564 303.638 333.269 275.316C315.287 242.011 308.838 209.942 311.876 178.532C314.916 147.099 327.468 116.197 347.694 85.2739C348.154 84.5706 348.09 83.648 347.538 83.0146C330.272 63.218 312.999 43.4274 295.721 23.6314C293.008 20.5225 290.294 17.4134 287.581 14.3041C287.097 13.7506 286.335 13.5288 285.63 13.7365C264.859 19.8512 246.177 22.6948 228.261 20.9331C210.372 19.1741 193.13 12.8122 175.248 0.338582Z" fill="#DCDEE4"/>
</svg>
\