<svg width="121" height="81" viewBox="0 0 121 81" fill="none" xmlns="http://www.w3.org/2000/svg">
<path d="M0 35.9515C0 24.8398 2.1319 16.0861 6.39569 9.69045C10.7241 3.29475 17.6689 0.0969032 27.2301 0.0969032C36.7914 0.0969032 43.7039 3.29475 47.9677 9.69045C52.2961 16.0861 54.4603 24.8398 54.4603 35.9515C54.4603 47.1925 52.2961 56.0108 47.9677 62.4065C43.7039 68.8022 36.7914 72 27.2301 72C17.6689 72 10.7241 68.8022 6.39569 62.4065C2.1319 56.0108 0 47.1925 0 35.9515ZM38.1804 35.9515C38.1804 29.4266 37.4697 24.4199 36.0485 20.9314C34.6272 17.3782 31.6878 15.6016 27.2301 15.6016C22.7725 15.6016 19.8331 17.3782 18.4118 20.9314C16.9906 24.4199 16.2799 29.4266 16.2799 35.9515C16.2799 40.3446 16.5384 43.9946 17.0552 46.9018C17.572 49.7443 18.6057 52.07 20.1561 53.8789C21.7712 55.6231 24.1292 56.4953 27.2301 56.4953C30.3311 56.4953 32.6568 55.6231 34.2073 53.8789C35.8223 52.07 36.8883 49.7443 37.4051 46.9018C37.9219 43.9946 38.1804 40.3446 38.1804 35.9515Z" fill="#FFF3D4"/>
<path d="M62.6336 59.0148C64.8301 57.2705 65.8314 56.463 65.6376 56.5922C71.9687 51.3594 76.9431 47.0633 80.5609 43.7039C84.2433 40.3446 87.3442 36.8237 89.8637 33.1413C92.3832 29.459 93.643 25.8735 93.643 22.3849C93.643 19.7362 93.0293 17.6689 91.8018 16.183C90.5744 14.6972 88.7332 13.9542 86.2783 13.9542C83.8233 13.9542 81.8853 14.891 80.464 16.7645C79.1073 18.5734 78.429 21.1575 78.429 24.5168H62.4398C62.569 19.0256 63.7318 14.4388 65.9283 10.7564C68.1894 7.07403 71.1289 4.3607 74.7466 2.61642C78.429 0.87214 82.499 0 86.9566 0C94.6443 0 100.426 1.97039 104.302 5.91117C108.243 9.85195 110.214 14.9879 110.214 21.319C110.214 28.2315 107.856 34.6595 103.14 40.603C98.4236 46.4818 92.4156 52.2315 85.1154 57.852H111.28V71.3217H62.6336V59.0148Z" fill="#FFF3D4"/>
<path d="M13.9816 17.4102L13.9816 17.4102L13.9797 17.4131C9.64177 23.9199 7.5 32.783 7.5 43.9515C7.5 55.2479 9.64124 64.1762 13.9797 70.6838L13.9816 70.6867C18.4256 77.2532 25.5478 80.5 35.2301 80.5C44.9115 80.5 52.003 77.2537 56.3826 70.6854C60.7866 64.1774 62.9603 55.2484 62.9603 43.9515C62.9603 32.7827 60.7861 23.919 56.3829 17.4118C52.0032 10.8433 44.9116 7.5969 35.2301 7.5969C25.5478 7.5969 18.4256 10.8437 13.9816 17.4102ZM43.5842 29.1171L43.5854 29.12C44.9706 32.5201 45.6804 37.451 45.6804 43.9515C45.6804 48.3275 45.4227 51.9456 44.913 54.8135C44.4094 57.5824 43.377 59.8181 41.8343 61.5459L41.8336 61.5467C40.4065 63.1521 38.2378 63.9953 35.2301 63.9953C32.2282 63.9953 30.0233 63.155 28.5295 61.5462C27.0514 59.8187 26.0509 57.5826 25.5472 54.813C25.0375 51.9452 24.7799 48.3273 24.7799 43.9515C24.7799 37.451 25.4897 32.5201 26.8749 29.12L26.8761 29.1171C27.5512 27.4293 28.5749 26.1876 29.941 25.362C31.3127 24.5329 33.0659 24.1016 35.2301 24.1016C37.3944 24.1016 39.1476 24.5329 40.5193 25.362C41.8854 26.1876 42.9091 27.4293 43.5842 29.1171ZM70.3226 66.6233L70.1336 66.7734V67.0148V79.3217V79.8217H70.6336H119.28H119.78V79.3217V65.852V65.352H119.28H94.5722C101.381 59.997 107.035 54.5188 111.53 48.9158L111.531 48.9137C116.31 42.891 118.714 36.3555 118.714 29.319C118.714 22.8756 116.704 17.6063 112.657 13.5589C108.655 9.49133 102.724 7.5 94.9566 7.5C90.432 7.5 86.288 8.38569 82.5326 10.1645L82.5295 10.166C78.8188 11.9551 75.8095 14.7372 73.5022 18.4947L73.4989 18.5003C71.2475 22.2746 70.0706 26.9513 69.9399 32.5051L69.9279 33.0168H70.4398H86.429H86.929V32.5168C86.929 29.2162 87.5967 26.7548 88.8632 25.0655C90.1851 23.3237 91.9723 22.4542 94.2783 22.4542C96.6283 22.4542 98.3088 23.1608 99.4163 24.5015C100.546 25.8693 101.143 27.8092 101.143 30.3849C101.143 33.7479 99.9295 37.2366 97.4511 40.859C94.9557 44.5061 91.8811 47.9982 88.2239 51.3345L88.2207 51.3375C84.613 54.6875 79.6469 58.9767 73.3191 64.2068L73.6233 64.6159C73.5682 64.6642 73.4532 64.7595 73.2781 64.9018C73.2476 64.8653 73.2203 64.8217 73.1988 64.7694C73.1251 64.5905 73.1803 64.4386 73.1914 64.4082C73.21 64.3574 73.2326 64.3215 73.2418 64.3074C73.2617 64.2769 73.2805 64.2559 73.2852 64.2505L73.2854 64.2503C73.2928 64.2421 73.2985 64.2364 73.3007 64.2341C73.3028 64.2321 73.3021 64.2327 73.2973 64.2368C73.2896 64.2435 73.2715 64.2594 73.2373 64.2881C73.1406 64.3693 72.9685 64.5098 72.7181 64.7117C72.219 65.1142 71.4208 65.7512 70.3226 66.6233Z" stroke="#FFB61D"/>
</svg>